tutorial_code/tutorial_tb.vcd
$date
	Tue Jan 27 09:35:18 2026
$end
$version
	Icarus Verilog
$end
$timescale
	10ps
$end
$scope module tutorial_tb $end
$var parameter 4 ! T0 $end
$var parameter 4 " T1 $end
$var parameter 4 # T2 $end
$var parameter 4 $ init $end
$var reg 8 % AddImmediate [7:0] $end
$var reg 1 & RAin $end
$var reg 1 ' RAout $end
$var reg 1 ( RBin $end
$var reg 1 ) RBout $end
$var reg 1 * RZin $end
$var reg 1 + RZout $end
$var reg 8 , RegisterAImmediate [7:0] $end
$var reg 1 - clear $end
$var reg 1 . clock $end
$var reg 4 / present_state [3:0] $end
$scope module DP $end
$var wire 8 0 A [7:0] $end
$var wire 1 & RAin $end
$var wire 1 ' RAout $end
$var wire 1 ( RBin $end
$var wire 1 ) RBout $end
$var wire 1 * RZin $end
$var wire 1 + RZout $end
$var wire 8 1 RegisterAImmediate [7:0] $end
$var wire 1 - clear $end
$var wire 1 . clock $end
$var wire 8 2 Zregin [7:0] $end
$var wire 8 3 BusMuxOut [7:0] $end
$var wire 8 4 BusMuxInRZ [7:0] $end
$var wire 8 5 BusMuxInRB [7:0] $end
$var wire 8 6 BusMuxInRA [7:0] $end
$scope module RA $end
$var wire 8 7 BusMuxIn [7:0] $end
$var wire 8 8 BusMuxOut [7:0] $end
$var wire 1 - clear $end
$var wire 1 . clock $end
$var wire 1 & enable $end
$var parameter 32 9 DATA_WIDTH_IN $end
$var parameter 32 : DATA_WIDTH_OUT $end
$var parameter 8 ; INIT $end
$var reg 8 < q [7:0] $end
$upscope $end
$scope module RB $end
$var wire 8 = BusMuxIn [7:0] $end
$var wire 1 - clear $end
$var wire 1 . clock $end
$var wire 1 ( enable $end
$var wire 8 > BusMuxOut [7:0] $end
$var parameter 32 ? DATA_WIDTH_IN $end
$var parameter 32 @ DATA_WIDTH_OUT $end
$var parameter 8 A INIT $end
$var reg 8 B q [7:0] $end
$upscope $end
$scope module RZ $end
$var wire 8 C BusMuxIn [7:0] $end
$var wire 1 - clear $end
$var wire 1 . clock $end
$var wire 1 * enable $end
$var wire 8 D BusMuxOut [7:0] $end
$var parameter 32 E DATA_WIDTH_IN $end
$var parameter 32 F DATA_WIDTH_OUT $end
$var parameter 8 G INIT $end
$var reg 8 H q [7:0] $end
$upscope $end
$scope module add $end
$var wire 8 I A [7:0] $end
$var wire 8 J B [7:0] $end
$var reg 9 K LocalCarry [8:0] $end
$var reg 8 L Result [7:0] $end
$var integer 32 M i [31:0] $end
$upscope $end
$scope module bus $end
$var wire 8 N BusMuxInRA [7:0] $end
$var wire 8 O BusMuxInRB [7:0] $end
$var wire 8 P BusMuxInRZ [7:0] $end
$var wire 8 Q BusMuxOut [7:0] $end
$var wire 1 ' RAout $end
$var wire 1 ) RBout $end
$var wire 1 + RZout $end
$var reg 8 R q [7:0] $end
$upscope $end
$upscope $end
$upscope $end
$enddefinitions $end
$comment Show the parameter values. $end
$dumpall
b0 G
b1000 F
b1000 E
b0 A
b1000 @
b1000 ?
b0 ;
b1000 :
b1000 9
b1 $
b100 #
b11 "
b10 !
$end
#0
$dumpvars
bx R
bx Q
b0 P
b0 O
b0 N
bx M
bx L
bx K
bx J
bx I
b0 H
bx D
b0 C
b0 B
bx >
b0 =
b0 <
bx 8
b0 7
b0 6
b0 5
b0 4
bx 3
bx 2
bx 1
bx 0
b0 /
0.
x-
bx ,
x+
x*
x)
x(
x'
x&
bx %
$end
#1000
1.
#2000
b1000 M
b0 K
0*
0(
0&
0)
0'
0+
b0 ,
b0 1
b0 8
b0 %
b0 0
b0 I
1-
b1 /
0.
#3000
1.
#3500
0-
#4000
1&
b101 ,
b101 1
b101 8
b10 /
0.
#5000
b101 6
b101 7
b101 N
b101 <
1.
#5500
0&
b0 ,
b0 1
b0 8
#6000
b1010 K
b1010 2
b1010 D
b1010 L
b1000 M
b101 3
b101 >
b101 J
b101 Q
b101 R
1*
b101 %
b101 0
b101 I
1'
b11 /
0.
#7000
b1010 4
b1010 C
b1010 P
b1010 H
1.
#7500
0*
0'
#8000
b1111 2
b1111 D
b1111 L
b1000 M
b0 K
b1010 3
b1010 >
b1010 J
b1010 Q
b1010 R
1(
1+
b100 /
0.
#9000
b1010 5
b1010 =
b1010 O
b1010 B
1.
#9500
0(
0+
#10000
b101 /
0.
#11000
1.
#12000
b110 /
0.
#13000
1.
#14000
b111 /
0.
#15000
1.
#16000
b1000 /
0.
#17000
1.
#18000
b1001 /
0.
#19000
1.
#20000
b1010 /
0.
#21000
1.
#22000
b1011 /
0.
#23000
1.
#24000
b1100 /
0.
#25000
1.
#26000
b1101 /
0.
#27000
1.
#28000
b1110 /
0.
#29000
1.
#30000
b1111 /
0.
#31000
1.
#32000
b0 /
0.
#33000
1.
#34000
b1010 2
b1010 D
b1010 L
b1000 M
b0 %
b0 0
b0 I
1-
b1 /
0.
#35000
b0 4
b0 C
b0 P
b0 H
b0 5
b0 =
b0 O
b0 B
b0 6
b0 7
b0 N
b0 <
1.
#35500
0-
#36000
1&
b101 ,
b101 1
b101 8
b10 /
0.
#37000
b101 6
b101 7
b101 N
b101 <
1.
#37500
0&
b0 ,
b0 1
b0 8
#38000
b1010 K
b1000 M
b101 3
b101 >
b101 J
b101 Q
b101 R
1*
b101 %
b101 0
b101 I
1'
b11 /
0.
#39000
b1010 4
b1010 C
b1010 P
b1010 H
1.
#39500
0*
0'
#40000
b1111 2
b1111 D
b1111 L
b1000 M
b0 K
b1010 3
b1010 >
b1010 J
b1010 Q
b1010 R
1(
1+
b100 /
0.
#41000
b1010 5
b1010 =
b1010 O
b1010 B
1.
#41500
0(
0+
#42000
b101 /
0.
#43000
1.
#44000
b110 /
0.
#45000
1.
#46000
b111 /
0.
#47000
1.
#48000
b1000 /
0.
#49000
1.
#50000
b1001 /
0.
#51000
1.
#52000
b1010 /
0.
#53000
1.
#54000
b1011 /
0.
#55000
1.
#56000
b1100 /
0.
#57000
1.
#58000
b1101 /
0.
#59000
1.
#60000
b1110 /
0.
#61000
1.
#62000
b1111 /
0.
#63000
1.
#64000
b0 /
0.
#65000
1.
#66000
b1010 2
b1010 D
b1010 L
b1000 M
b0 %
b0 0
b0 I
1-
b1 /
0.
#67000
b0 4
b0 C
b0 P
b0 H
b0 5
b0 =
b0 O
b0 B
b0 6
b0 7
b0 N
b0 <
1.
#67500
0-
#68000
1&
b101 ,
b101 1
b101 8
b10 /
0.
#69000
b101 6
b101 7
b101 N
b101 <
1.
#69500
0&
b0 ,
b0 1
b0 8
#70000
b1010 K
b1000 M
b101 3
b101 >
b101 J
b101 Q
b101 R
1*
b101 %
b101 0
b101 I
1'
b11 /
0.
#71000
b1010 4
b1010 C
b1010 P
b1010 H
1.
#71500
0*
0'
#72000
b1111 2
b1111 D
b1111 L
b1000 M
b0 K
b1010 3
b1010 >
b1010 J
b1010 Q
b1010 R
1(
1+
b100 /
0.
#73000
b1010 5
b1010 =
b1010 O
b1010 B
1.
#73500
0(
0+
#74000
b101 /
0.
#75000
1.
#76000
b110 /
0.
#77000
1.
#78000
b111 /
0.
#79000
1.
#80000
b1000 /
0.
#81000
1.
#82000
b1001 /
0.
#83000
1.
#84000
b1010 /
0.
#85000
1.
#86000
b1011 /
0.
#87000
1.
#88000
b1100 /
0.
#89000
1.
#90000
b1101 /
0.
#91000
1.
#92000
b1110 /
0.
#93000
1.
#94000
b1111 /
0.
#95000
1.
#96000
b0 /
0.
#97000
1.
#98000
b1010 2
b1010 D
b1010 L
b1000 M
b0 %
b0 0
b0 I
1-
b1 /
0.
#99000
b0 4
b0 C
b0 P
b0 H
b0 5
b0 =
b0 O
b0 B
b0 6
b0 7
b0 N
b0 <
1.
#99500
0-
#100000
1&
b101 ,
b101 1
b101 8
b10 /
0.
#101000
b101 6
b101 7
b101 N
b101 <
1.
#101500
0&
b0 ,
b0 1
b0 8
#102000
b1010 K
b1000 M
b101 3
b101 >
b101 J
b101 Q
b101 R
1*
b101 %
b101 0
b101 I
1'
b11 /
0.
#103000
b1010 4
b1010 C
b1010 P
b1010 H
1.
#103500
0*
0'
#104000
b1111 2
b1111 D
b1111 L
b1000 M
b0 K
b1010 3
b1010 >
b1010 J
b1010 Q
b1010 R
1(
1+
b100 /
0.
#105000
b1010 5
b1010 =
b1010 O
b1010 B
1.
#105500
0(
0+
#106000
b101 /
0.
#107000
1.
#108000
b110 /
0.
#109000
1.
#110000
b111 /
0.
#111000
1.
#112000
b1000 /
0.
#113000
1.
#114000
b1001 /
0.
#115000
1.
#116000
b1010 /
0.
#117000
1.
#118000
b1011 /
0.
#119000
1.
#120000
b1100 /
0.
#121000
1.
#122000
b1101 /
0.
#123000
1.
#124000
b1110 /
0.
#125000
1.
#126000
b1111 /
0.
#127000
1.
#128000
b0 /
0.
#129000
1.
#130000
b1010 2
b1010 D
b1010 L
b1000 M
b0 %
b0 0
b0 I
1-
b1 /
0.
#131000
b0 4
b0 C
b0 P
b0 H
b0 5
b0 =
b0 O
b0 B
b0 6
b0 7
b0 N
b0 <
1.
#131500
0-
#132000
1&
b101 ,
b101 1
b101 8
b10 /
0.
#133000
b101 6
b101 7
b101 N
b101 <
1.
#133500
0&
b0 ,
b0 1
b0 8
#134000
b1010 K
b1000 M
b101 3
b101 >
b101 J
b101 Q
b101 R
1*
b101 %
b101 0
b101 I
1'
b11 /
0.
#135000
b1010 4
b1010 C
b1010 P
b1010 H
1.
#135500
0*
0'
#136000
b1111 2
b1111 D
b1111 L
b1000 M
b0 K
b1010 3
b1010 >
b1010 J
b1010 Q
b1010 R
1(
1+
b100 /
0.
#137000
b1010 5
b1010 =
b1010 O
b1010 B
1.
#137500
0(
0+
#138000
b101 /
0.
#139000
1.
#140000
b110 /
0.
#141000
1.
#142000
b111 /
0.
#143000
1.
#144000
b1000 /
0.
#145000
1.
#146000
b1001 /
0.
#147000
1.
#148000
b1010 /
0.
#149000
1.
#150000
b1011 /
0.
#151000
1.
#152000
b1100 /
0.
#153000
1.
#154000
b1101 /
0.
#155000
1.
#156000
b1110 /
0.
#157000
1.
#158000
b1111 /
0.
#159000
1.
#160000
b0 /
0.
#161000
1.
#162000
b1010 2
b1010 D
b1010 L
b1000 M
b0 %
b0 0
b0 I
1-
b1 /
0.
#163000
b0 4
b0 C
b0 P
b0 H
b0 5
b0 =
b0 O
b0 B
b0 6
b0 7
b0 N
b0 <
1.
#163500
0-
#164000
1&
b101 ,
b101 1
b101 8
b10 /
0.
#165000
b101 6
b101 7
b101 N
b101 <
1.
#165500
0&
b0 ,
b0 1
b0 8
#166000
b1010 K
b1000 M
b101 3
b101 >
b101 J
b101 Q
b101 R
1*
b101 %
b101 0
b101 I
1'
b11 /
0.
#167000
b1010 4
b1010 C
b1010 P
b1010 H
1.
#167500
0*
0'
#168000
b1111 2
b1111 D
b1111 L
b1000 M
b0 K
b1010 3
b1010 >
b1010 J
b1010 Q
b1010 R
1(
1+
b100 /
0.
#169000
b1010 5
b1010 =
b1010 O
b1010 B
1.
#169500
0(
0+
#170000
b101 /
0.
#171000
1.
#172000
b110 /
0.
#173000
1.
#174000
b111 /
0.
#175000
1.
#176000
b1000 /
0.
#177000
1.
#178000
b1001 /
0.
#179000
1.
#180000
b1010 /
0.
#181000
1.
#182000
b1011 /
0.
#183000
1.
#184000
b1100 /
0.
#185000
1.
#186000
b1101 /
0.
#187000
1.
#188000
b1110 /
0.
#189000
1.
#190000
b1111 /
0.
#191000
1.
#192000
b0 /
0.
#193000
1.
#194000
b1010 2
b1010 D
b1010 L
b1000 M
b0 %
b0 0
b0 I
1-
b1 /
0.
#195000
b0 4
b0 C
b0 P
b0 H
b0 5
b0 =
b0 O
b0 B
b0 6
b0 7
b0 N
b0 <
1.
#195500
0-
#196000
1&
b101 ,
b101 1
b101 8
b10 /
0.
#197000
b101 6
b101 7
b101 N
b101 <
1.
#197500
0&
b0 ,
b0 1
b0 8
#198000
b1010 K
b1000 M
b101 3
b101 >
b101 J
b101 Q
b101 R
1*
b101 %
b101 0
b101 I
1'
b11 /
0.
#199000
b1010 4
b1010 C
b1010 P
b1010 H
1.
#199500
0*
0'
#200000
b1111 2
b1111 D
b1111 L
b1000 M
b0 K
b1010 3
b1010 >
b1010 J
b1010 Q
b1010 R
1(
1+
b100 /
0.
#201000
b1010 5
b1010 =
b1010 O
b1010 B
1.
#201500
0(
0+
#202000
b101 /
0.
#203000
1.
#204000
b110 /
0.
#205000
1.
#206000
b111 /
0.
#207000
1.
#208000
b1000 /
0.
#209000
1.
#210000
b1001 /
0.
#211000
1.
#212000
b1010 /
0.
#213000
1.
#214000
b1011 /
0.
#215000
1.
#216000
b1100 /
0.
#217000
1.
#218000
b1101 /
0.
#219000
1.
#220000
b1110 /
0.
#221000
1.
#222000
b1111 /
0.
#223000
1.
#224000
b0 /
0.
#225000
1.
#226000
b1010 2
b1010 D
b1010 L
b1000 M
b0 %
b0 0
b0 I
1-
b1 /
0.
#227000
b0 4
b0 C
b0 P
b0 H
b0 5
b0 =
b0 O
b0 B
b0 6
b0 7
b0 N
b0 <
1.
#227500
0-
#228000
1&
b101 ,
b101 1
b101 8
b10 /
0.
#229000
b101 6
b101 7
b101 N
b101 <
1.
#229500
0&
b0 ,
b0 1
b0 8
#230000
b1010 K
b1000 M
b101 3
b101 >
b101 J
b101 Q
b101 R
1*
b101 %
b101 0
b101 I
1'
b11 /
0.
#231000
b1010 4
b1010 C
b1010 P
b1010 H
1.
#231500
0*
0'
#232000
b1111 2
b1111 D
b1111 L
b1000 M
b0 K
b1010 3
b1010 >
b1010 J
b1010 Q
b1010 R
1(
1+
b100 /
0.
#233000
b1010 5
b1010 =
b1010 O
b1010 B
1.
#233500
0(
0+
#234000
b101 /
0.
#235000
1.
#236000
b110 /
0.
#237000
1.
#238000
b111 /
0.
#239000
1.
#240000
b1000 /
0.
#241000
1.
#242000
b1001 /
0.
#243000
1.
#244000
b1010 /
0.
#245000
1.
#246000
b1011 /
0.
#247000
1.
#248000
b1100 /
0.
#249000
1.
#250000
b1101 /
0.
#251000
1.
#252000
b1110 /
0.
#253000
1.
#254000
b1111 /
0.
#255000
1.
#256000
b0 /
0.
#257000
1.
#258000
b1010 2
b1010 D
b1010 L
b1000 M
b0 %
b0 0
b0 I
1-
b1 /
0.
#259000
b0 4
b0 C
b0 P
b0 H
b0 5
b0 =
b0 O
b0 B
b0 6
b0 7
b0 N
b0 <
1.
#259500
0-
#260000
1&
b101 ,
b101 1
b101 8
b10 /
0.
#261000
b101 6
b101 7
b101 N
b101 <
1.
#261500
0&
b0 ,
b0 1
b0 8
#262000
b1010 K
b1000 M
b101 3
b101 >
b101 J
b101 Q
b101 R
1*
b101 %
b101 0
b101 I
1'
b11 /
0.
#263000
b1010 4
b1010 C
b1010 P
b1010 H
1.
#263500
0*
0'
#264000
b1111 2
b1111 D
b1111 L
b1000 M
b0 K
b1010 3
b1010 >
b1010 J
b1010 Q
b1010 R
1(
1+
b100 /
0.
#265000
b1010 5
b1010 =
b1010 O
b1010 B
1.
#265500
0(
0+
#266000
b101 /
0.
#267000
1.
#268000
b110 /
0.
#269000
1.
#270000
b111 /
0.
#271000
1.
#272000
b1000 /
0.
#273000
1.
#274000
b1001 /
0.
#275000
1.
#276000
b1010 /
0.
#277000
1.
#278000
b1011 /
0.
#279000
1.
#280000
b1100 /
0.
#281000
1.
#282000
b1101 /
0.
#283000
1.
#284000
b1110 /
0.
#285000
1.
#286000
b1111 /
0.
#287000
1.
#288000
b0 /
0.
#289000
1.
#290000
b1010 2
b1010 D
b1010 L
b1000 M
b0 %
b0 0
b0 I
1-
b1 /
0.
#291000
b0 4
b0 C
b0 P
b0 H
b0 5
b0 =
b0 O
b0 B
b0 6
b0 7
b0 N
b0 <
1.
#291500
0-
#292000
1&
b101 ,
b101 1
b101 8
b10 /
0.
#293000
b101 6
b101 7
b101 N
b101 <
1.
#293500
0&
b0 ,
b0 1
b0 8
#294000
b1010 K
b1000 M
b101 3
b101 >
b101 J
b101 Q
b101 R
1*
b101 %
b101 0
b101 I
1'
b11 /
0.
#295000
b1010 4
b1010 C
b1010 P
b1010 H
1.
#295500
0*
0'
#296000
b1111 2
b1111 D
b1111 L
b1000 M
b0 K
b1010 3
b1010 >
b1010 J
b1010 Q
b1010 R
1(
1+
b100 /
0.
#297000
b1010 5
b1010 =
b1010 O
b1010 B
1.
#297500
0(
0+
#298000
b101 /
0.
#299000
1.
#300000
b110 /
0.
#301000
1.
#302000
b111 /
0.
#303000
1.
#304000
b1000 /
0.
#305000
1.
#306000
b1001 /
0.
#307000
1.
#308000
b1010 /
0.
#309000
1.
#310000
b1011 /
0.
#311000
1.
#312000
b1100 /
0.
#313000
1.
#314000
b1101 /
0.
#315000
1.
#316000
b1110 /
0.
#317000
1.
#318000
b1111 /
0.
#319000
1.
#320000
b0 /
0.
#321000
1.
#322000
b1010 2
b1010 D
b1010 L
b1000 M
b0 %
b0 0
b0 I
1-
b1 /
0.
#323000
b0 4
b0 C
b0 P
b0 H
b0 5
b0 =
b0 O
b0 B
b0 6
b0 7
b0 N
b0 <
1.
#323500
0-
#324000
1&
b101 ,
b101 1
b101 8
b10 /
0.
#325000
b101 6
b101 7
b101 N
b101 <
1.
#325500
0&
b0 ,
b0 1
b0 8
#326000
b1010 K
b1000 M
b101 3
b101 >
b101 J
b101 Q
b101 R
1*
b101 %
b101 0
b101 I
1'
b11 /
0.
#327000
b1010 4
b1010 C
b1010 P
b1010 H
1.
#327500
0*
0'
#328000
b1111 2
b1111 D
b1111 L
b1000 M
b0 K
b1010 3
b1010 >
b1010 J
b1010 Q
b1010 R
1(
1+
b100 /
0.
#329000
b1010 5
b1010 =
b1010 O
b1010 B
1.
#329500
0(
0+
#330000
b101 /
0.
#331000
1.
#332000
b110 /
0.
#333000
1.
#334000
b111 /
0.
#335000
1.
#336000
b1000 /
0.
#337000
1.
#338000
b1001 /
0.
#339000
1.
#340000
b1010 /
0.
#341000
1.
#342000
b1011 /
0.
#343000
1.
#344000
b1100 /
0.
#345000
1.
#346000
b1101 /
0.
#347000
1.
#348000
b1110 /
0.
#349000
1.
#350000
b1111 /
0.
#351000
1.
#352000
b0 /
0.
#353000
1.
#354000
b1010 2
b1010 D
b1010 L
b1000 M
b0 %
b0 0
b0 I
1-
b1 /
0.
#355000
b0 4
b0 C
b0 P
b0 H
b0 5
b0 =
b0 O
b0 B
b0 6
b0 7
b0 N
b0 <
1.
#355500
0-
#356000
1&
b101 ,
b101 1
b101 8
b10 /
0.
#357000
b101 6
b101 7
b101 N
b101 <
1.
#357500
0&
b0 ,
b0 1
b0 8
#358000
b1010 K
b1000 M
b101 3
b101 >
b101 J
b101 Q
b101 R
1*
b101 %
b101 0
b101 I
1'
b11 /
0.
#359000
b1010 4
b1010 C
b1010 P
b1010 H
1.
#359500
0*
0'
#360000
b1111 2
b1111 D
b1111 L
b1000 M
b0 K
b1010 3
b1010 >
b1010 J
b1010 Q
b1010 R
1(
1+
b100 /
0.
#361000
b1010 5
b1010 =
b1010 O
b1010 B
1.
#361500
0(
0+
#362000
b101 /
0.
#363000
1.
#364000
b110 /
0.
#365000
1.
#366000
b111 /
0.
#367000
1.
#368000
b1000 /
0.
#369000
1.
#370000
b1001 /
0.
#371000
1.
#372000
b1010 /
0.
#373000
1.
#374000
b1011 /
0.
#375000
1.
#376000
b1100 /
0.
#377000
1.
#378000
b1101 /
0.
#379000
1.
#380000
b1110 /
0.
#381000
1.
#382000
b1111 /
0.
#383000
1.
#384000
b0 /
0.
#385000
1.
#386000
b1010 2
b1010 D
b1010 L
b1000 M
b0 %
b0 0
b0 I
1-
b1 /
0.
#387000
b0 4
b0 C
b0 P
b0 H
b0 5
b0 =
b0 O
b0 B
b0 6
b0 7
b0 N
b0 <
1.
#387500
0-
#388000
1&
b101 ,
b101 1
b101 8
b10 /
0.
#389000
b101 6
b101 7
b101 N
b101 <
1.
#389500
0&
b0 ,
b0 1
b0 8
#390000
b1010 K
b1000 M
b101 3
b101 >
b101 J
b101 Q
b101 R
1*
b101 %
b101 0
b101 I
1'
b11 /
0.
#391000
b1010 4
b1010 C
b1010 P
b1010 H
1.
#391500
0*
0'
#392000
b1111 2
b1111 D
b1111 L
b1000 M
b0 K
b1010 3
b1010 >
b1010 J
b1010 Q
b1010 R
1(
1+
b100 /
0.
#393000
b1010 5
b1010 =
b1010 O
b1010 B
1.
#393500
0(
0+
#394000
b101 /
0.
#395000
1.
#396000
b110 /
0.
#397000
1.
#398000
b111 /
0.
#399000
1.
#400000
b1000 /
0.
#401000
1.
#402000
b1001 /
0.
#403000
1.
#404000
b1010 /
0.
#405000
1.
#406000
b1011 /
0.
#407000
1.
#408000
b1100 /
0.
#409000
1.
#410000
b1101 /
0.
#411000
1.
#412000
b1110 /
0.
#413000
1.
#414000
b1111 /
0.
#415000
1.
#416000
b0 /
0.
#417000
1.
#418000
b1010 2
b1010 D
b1010 L
b1000 M
b0 %
b0 0
b0 I
1-
b1 /
0.
#419000
b0 4
b0 C
b0 P
b0 H
b0 5
b0 =
b0 O
b0 B
b0 6
b0 7
b0 N
b0 <
1.
#419500
0-
#420000
1&
b101 ,
b101 1
b101 8
b10 /
0.
#421000
b101 6
b101 7
b101 N
b101 <
1.
#421500
0&
b0 ,
b0 1
b0 8
#422000
b1010 K
b1000 M
b101 3
b101 >
b101 J
b101 Q
b101 R
1*
b101 %
b101 0
b101 I
1'
b11 /
0.
#423000
b1010 4
b1010 C
b1010 P
b1010 H
1.
#423500
0*
0'
#424000
b1111 2
b1111 D
b1111 L
b1000 M
b0 K
b1010 3
b1010 >
b1010 J
b1010 Q
b1010 R
1(
1+
b100 /
0.
#425000
b1010 5
b1010 =
b1010 O
b1010 B
1.
#425500
0(
0+
#426000
b101 /
0.
#427000
1.
#428000
b110 /
0.
#429000
1.
#430000
b111 /
0.
#431000
1.
#432000
b1000 /
0.
#433000
1.
#434000
b1001 /
0.
#435000
1.
#436000
b1010 /
0.
#437000
1.
#438000
b1011 /
0.
#439000
1.
#440000
b1100 /
0.
#441000
1.
#442000
b1101 /
0.
#443000
1.
#444000
b1110 /
0.
#445000
1.
#446000
b1111 /
0.
#447000
1.
#448000
b0 /
0.
#449000
1.
#450000
b1010 2
b1010 D
b1010 L
b1000 M
b0 %
b0 0
b0 I
1-
b1 /
0.
#451000
b0 4
b0 C
b0 P
b0 H
b0 5
b0 =
b0 O
b0 B
b0 6
b0 7
b0 N
b0 <
1.
#451500
0-
#452000
1&
b101 ,
b101 1
b101 8
b10 /
0.
#453000
b101 6
b101 7
b101 N
b101 <
1.
#453500
0&
b0 ,
b0 1
b0 8
#454000
b1010 K
b1000 M
b101 3
b101 >
b101 J
b101 Q
b101 R
1*
b101 %
b101 0
b101 I
1'
b11 /
0.
#455000
b1010 4
b1010 C
b1010 P
b1010 H
1.
#455500
0*
0'
#456000
b1111 2
b1111 D
b1111 L
b1000 M
b0 K
b1010 3
b1010 >
b1010 J
b1010 Q
b1010 R
1(
1+
b100 /
0.
#457000
b1010 5
b1010 =
b1010 O
b1010 B
1.
#457500
0(
0+
#458000
b101 /
0.
#459000
1.
#460000
b110 /
0.
#461000
1.
#462000
b111 /
0.
#463000
1.
#464000
b1000 /
0.
#465000
1.
#466000
b1001 /
0.
#467000
1.
#468000
b1010 /
0.
#469000
1.
#470000
b1011 /
0.
#471000
1.
#472000
b1100 /
0.
#473000
1.
#474000
b1101 /
0.
#475000
1.
#476000
b1110 /
0.
#477000
1.
#478000
b1111 /
0.
#479000
1.
#480000
b0 /
0.
#481000
1.
#482000
b1010 2
b1010 D
b1010 L
b1000 M
b0 %
b0 0
b0 I
1-
b1 /
0.
#483000
b0 4
b0 C
b0 P
b0 H
b0 5
b0 =
b0 O
b0 B
b0 6
b0 7
b0 N
b0 <
1.
#483500
0-
#484000
1&
b101 ,
b101 1
b101 8
b10 /
0.
#485000
b101 6
b101 7
b101 N
b101 <
1.
#485500
0&
b0 ,
b0 1
b0 8
#486000
b1010 K
b1000 M
b101 3
b101 >
b101 J
b101 Q
b101 R
1*
b101 %
b101 0
b101 I
1'
b11 /
0.
#487000
b1010 4
b1010 C
b1010 P
b1010 H
1.
#487500
0*
0'
#488000
b1111 2
b1111 D
b1111 L
b1000 M
b0 K
b1010 3
b1010 >
b1010 J
b1010 Q
b1010 R
1(
1+
b100 /
0.
#489000
b1010 5
b1010 =
b1010 O
b1010 B
1.
#489500
0(
0+
#490000
b101 /
0.
#491000
1.
#492000
b110 /
0.
#493000
1.
#494000
b111 /
0.
#495000
1.
#496000
b1000 /
0.
#497000
1.
#498000
b1001 /
0.
#499000
1.
#500000
b1010 /
0.
#501000
1.
#502000
b1011 /
0.
#503000
1.
#504000
b1100 /
0.
#505000
1.
#506000
b1101 /
0.
#507000
1.
#508000
b1110 /
0.
#509000
1.
#510000
b1111 /
0.
#511000
1.
#512000
b0 /
0.
#513000
1.
#514000
b1010 2
b1010 D
b1010 L
b1000 M
b0 %
b0 0
b0 I
1-
b1 /
0.
#515000
b0 4
b0 C
b0 P
b0 H
b0 5
b0 =
b0 O
b0 B
b0 6
b0 7
b0 N
b0 <
1.
#515500
0-
#516000
1&
b101 ,
b101 1
b101 8
b10 /
0.
#517000
b101 6
b101 7
b101 N
b101 <
1.
#517500
0&
b0 ,
b0 1
b0 8
#518000
b1010 K
b1000 M
b101 3
b101 >
b101 J
b101 Q
b101 R
1*
b101 %
b101 0
b101 I
1'
b11 /
0.
#519000
b1010 4
b1010 C
b1010 P
b1010 H
1.
#519500
0*
0'
#520000
b1111 2
b1111 D
b1111 L
b1000 M
b0 K
b1010 3
b1010 >
b1010 J
b1010 Q
b1010 R
1(
1+
b100 /
0.
#521000
b1010 5
b1010 =
b1010 O
b1010 B
1.
#521500
0(
0+
#522000
b101 /
0.
#523000
1.
#524000
b110 /
0.
#525000
1.
#526000
b111 /
0.
#527000
1.
#528000
b1000 /
0.
#529000
1.
#530000
b1001 /
0.
#531000
1.
#532000
b1010 /
0.
#533000
1.
#534000
b1011 /
0.
#535000
1.
#536000
b1100 /
0.
#537000
1.
#538000
b1101 /
0.
#539000
1.
#540000
b1110 /
0.
#541000
1.
#542000
b1111 /
0.
#543000
1.
#544000
b0 /
0.
#545000
1.
#546000
b1010 2
b1010 D
b1010 L
b1000 M
b0 %
b0 0
b0 I
1-
b1 /
0.
#547000
b0 4
b0 C
b0 P
b0 H
b0 5
b0 =
b0 O
b0 B
b0 6
b0 7
b0 N
b0 <
1.
#547500
0-
#548000
1&
b101 ,
b101 1
b101 8
b10 /
0.
#549000
b101 6
b101 7
b101 N
b101 <
1.
#549500
0&
b0 ,
b0 1
b0 8
#550000
b1010 K
b1000 M
b101 3
b101 >
b101 J
b101 Q
b101 R
1*
b101 %
b101 0
b101 I
1'
b11 /
0.
#551000
b1010 4
b1010 C
b1010 P
b1010 H
1.
#551500
0*
0'
#552000
b1111 2
b1111 D
b1111 L
b1000 M
b0 K
b1010 3
b1010 >
b1010 J
b1010 Q
b1010 R
1(
1+
b100 /
0.
#553000
b1010 5
b1010 =
b1010 O
b1010 B
1.
#553500
0(
0+
#554000
b101 /
0.
#555000
1.
#556000
b110 /
0.
#557000
1.
#558000
b111 /
0.
#559000
1.
#560000
b1000 /
0.
#561000
1.
#562000
b1001 /
0.
#563000
1.
#564000
b1010 /
0.
#565000
1.
#566000
b1011 /
0.
#567000
1.
#568000
b1100 /
0.
#569000
1.
#570000
b1101 /
0.
#571000
1.
#572000
b1110 /
0.
#573000
1.
#574000
b1111 /
0.
#575000
1.
#576000
b0 /
0.
#577000
1.
#578000
b1010 2
b1010 D
b1010 L
b1000 M
b0 %
b0 0
b0 I
1-
b1 /
0.
#579000
b0 4
b0 C
b0 P
b0 H
b0 5
b0 =
b0 O
b0 B
b0 6
b0 7
b0 N
b0 <
1.
#579500
0-
#580000
1&
b101 ,
b101 1
b101 8
b10 /
0.
#581000
b101 6
b101 7
b101 N
b101 <
1.
#581500
0&
b0 ,
b0 1
b0 8
#582000
b1010 K
b1000 M
b101 3
b101 >
b101 J
b101 Q
b101 R
1*
b101 %
b101 0
b101 I
1'
b11 /
0.
#583000
b1010 4
b1010 C
b1010 P
b1010 H
1.
#583500
0*
0'
#584000
b1111 2
b1111 D
b1111 L
b1000 M
b0 K
b1010 3
b1010 >
b1010 J
b1010 Q
b1010 R
1(
1+
b100 /
0.
#585000
b1010 5
b1010 =
b1010 O
b1010 B
1.
#585500
0(
0+
#586000
b101 /
0.
#587000
1.
#588000
b110 /
0.
#589000
1.
#590000
b111 /
0.
#591000
1.
#592000
b1000 /
0.
#593000
1.
#594000
b1001 /
0.
#595000
1.
#596000
b1010 /
0.
#597000
1.
#598000
b1011 /
0.
#599000
1.
#600000
b1100 /
0.
#601000
1.
#602000
b1101 /
0.
#603000
1.
#604000
b1110 /
0.
#605000
1.
#606000
b1111 /
0.
#607000
1.
#608000
b0 /
0.
#609000
1.
#610000
b1010 2
b1010 D
b1010 L
b1000 M
b0 %
b0 0
b0 I
1-
b1 /
0.
#611000
b0 4
b0 C
b0 P
b0 H
b0 5
b0 =
b0 O
b0 B
b0 6
b0 7
b0 N
b0 <
1.
#611500
0-
#612000
1&
b101 ,
b101 1
b101 8
b10 /
0.
#613000
b101 6
b101 7
b101 N
b101 <
1.
#613500
0&
b0 ,
b0 1
b0 8
#614000
b1010 K
b1000 M
b101 3
b101 >
b101 J
b101 Q
b101 R
1*
b101 %
b101 0
b101 I
1'
b11 /
0.
#615000
b1010 4
b1010 C
b1010 P
b1010 H
1.
#615500
0*
0'
#616000
b1111 2
b1111 D
b1111 L
b1000 M
b0 K
b1010 3
b1010 >
b1010 J
b1010 Q
b1010 R
1(
1+
b100 /
0.
#617000
b1010 5
b1010 =
b1010 O
b1010 B
1.
